{
   "Categories":[
      {
         "name":"Google"
      },
	        {
         "name":"One Plus"
      }
   ],
   "Wallpapers":[
      {
         "author":"By Google",
         "url":"https://drive.google.com/uc?id=1P2Djruxbm6VXAXLhlcvhRUYh65agqrYJ",
         "name":"Google Pixel",
         "category":"Google"
      },
      {
         "author":"By One Plus",
         "url":"https://drive.google.com/uc?id=1VdKeDTyaZB6dypnD6qwdjGJP4drIPeMR",
         "name":"One Plus 7 Pro",
         "category":"One Plus"
      },
      {
         "author":"By One Plus",
         "url":"https://drive.google.com/uc?id=1i45yRfLSLJv-RA_g4FmZIW5oe40RUMoT",
         "name":"One Plus 7 Pro",
         "category":"One Plus"
      },
      {
         "author":"By One Plus",
         "url":"https://drive.google.com/uc?id=1ArBEOzAZa_eLM3SoKADlafvuXby_M7IT",
         "name":"One Plus 7 Pro",
         "category":"One Plus"
      },
      {
         "author":"By One Plus",
         "url":"https://drive.google.com/uc?id=1Ev_6Vd2dTwtKi_ta-8dEufU1FvPIQLk3",
         "name":"One Plus 7 Pro",
         "category":"One Plus"
      }
   ]
}


